{
  "latestVersion": "2.0.0",
  "latestVersionCode":"2",
  "url": "https://play.google.com/store/apps/details?id=com.titan.app_client",
  "releaseNotes": [
        "- Se agrega tema DarkMode <br/>",
        "- Se mejoran interfaces <br/>"

      ]
}
